{
    "B2_ACCOUNT": "exampleApiKeyId",
    "B2_KEY": "exampleApiKey",
    "B2_BUCKET": "exampleB2Bucket",
    "B2_DIR": "exampleB2BackupDir",
    "LOCAL_DIR": "path/to/localDirectoryToBackup",
    "ENC_KEY": "gpgEncryptionKeySetHere",
    "SGN_KEY": "iDontKnowWhatThisIsYet",
    "PASSPHRASE": "examplePassphrase",
    "SIGN_PASSPHRASE": "examplePassphrase"
}